Kageyama

Hinata
Ichinose
Elizabeth
Mizuhara
Echidna

Hawk

Meliodas

Hinata

Meliodas

Hinata

Meliodas

Hawk
Meliodas
Chizuru
Hinata
Elizabeth

Hawk

Wilhelm

Chizuru

Sumi

Sumi

Kageyama

Kageyama

Elizabeth

Kageyama

Elizabeth

Sumi
