Candidate 8

Candidate 7

Candidate 2

Candidate 9

Candidate 3

Candidate 7

Candidate 5

Candidate 7

Candidate 10

Candidate 5

Candidate 14

Candidate 9

Candidate 7

Candidate 2

Candidate 4
Candidate 5

Candidate 11

Candidate 10

Candidate 2
Candidate 10